{
  "images" : [
    {
      "idiom" : "universal",
      "scale" : "1x",
      "filename" : "img_type_sea.png"
    },
    {
      "idiom" : "universal",
      "scale" : "2x",
      "filename" : "img_type_sea@2x.png"
    },
    {
      "idiom" : "universal",
      "filename" : "img_type_sea@3x.png",
      "scale" : "3x"
    }
  ],
  "info" : {
    "version" : 1,
    "author" : "xcode"
  }
}